Quantify protein concentration from a MicroBCA assay — qp • qp
…
data <- system.file("extdata", "absorbances.txt", package = "qp")
qp(data, replicate_orientation = "h")
#> $fit
#> 
#> Call:
#> stats::lm(formula = .log2_conc ~ .log2_abs, data = fit_data)
#> 
#> Coefficients:
#> (Intercept)    .log2_abs  
#>       3.358        1.141  
#> 
#> 
#> $qp
#> # A tibble: 36 × 13
#>     .row  .col   .abs sample_type index .conc .is_outlier  .mean .log2_abs
#>    <int> <dbl>  <dbl> <fct>       <dbl> <dbl> <lgl>        <dbl>     <dbl>
#>  1     1     1 0.0686 standard        1 0     FALSE       0.0700     -3.87
#>  2     1     2 0.0717 standard        1 0     FALSE       0.0700     -3.80
#>  3     1     3 0.0698 standard        1 0     FALSE       0.0700     -3.84
#>  4     2     1 0.0825 standard        2 0.125 TRUE        0.0834     -3.60
#>  5     2     2 0.0832 standard        2 0.125 FALSE       0.0834     -3.59
#>  6     2     3 0.0835 standard        2 0.125 FALSE       0.0834     -3.58
#>  7     3     1 0.102  standard        3 0.25  FALSE       0.102      -3.29
#>  8     3     2 0.100  standard        3 0.25  TRUE        0.102      -3.32
#>  9     3     3 0.102  standard        3 0.25  FALSE       0.102      -3.30
#> 10     4     1 0.132  standard        4 0.5   FALSE       0.132      -2.92
#> # ℹ 26 more rows
#> # ℹ 4 more variables: .pred <dbl>, .pred_conc <dbl>, .pred_conc_mean <dbl>,
#> #   .sample_name <chr>
…
