Read in and wrangle protein quantification data — qp_tidy • qp
…
    Value

    a data.frame

    Details

    qp assumes that if you read in data not in a spectramax file or
object, you probably have a custom workflow in mind - therefore, tidying
will be minimal and mostly focused on checking for validity.

    Examples

data <- system.file("extdata", "absorbances.txt", package = "qp")
qp_tidy(data)
#> # A tibble: 96 × 5
#>     .row  .col   .abs sample_type index
#>    <int> <dbl>  <dbl> <fct>       <dbl>
#>  1     1     1 0.0686 standard        1
#>  2     1     2 0.0717 standard        1
#>  3     1     3 0.0698 standard        1
#>  4     2     1 0.0825 standard        2
#>  5     2     2 0.0832 standard        2
#>  6     2     3 0.0835 standard        2
#>  7     3     1 0.102  standard        3
#>  8     3     2 0.100  standard        3
#>  9     3     3 0.102  standard        3
#> 10     4     1 0.132  standard        4
#> # ℹ 86 more rows
…
