Quantifying protein with qp • qp
…
out
#> $fit
#> 
#> Call:
#> stats::lm(formula = .log2_conc ~ .log2_abs, data = fit_data)
#> 
#> Coefficients:
#> (Intercept)    .log2_abs  
#>       2.378        0.850  
#> 
#> 
#> $qp
#> # A tibble: 88 × 9
#>     .row  .col   .abs sample_type index .conc .is_outlier  .mean .log2_abs
#>    <int> <dbl>  <dbl> <fct>       <dbl> <dbl> <lgl>        <dbl>     <dbl>
#>  1     1     1 0.0707 standard        1 0     FALSE       0.0710     -3.82
#>  2     2     1 0.0786 standard        1 0     TRUE        0.0710     -3.67
#>  3     3     1 0.0714 standard        1 0     FALSE       0.0710     -3.81
#>  4     1     2 0.0795 standard        2 0.125 FALSE       0.0800     -3.65
#>  5     2     2 0.0799 standard        2 0.125 FALSE       0.0800     -3.65
#>  6     3     2 0.0805 standard        2 0.125 FALSE       0.0800     -3.63
#>  7     1     3 0.0999 standard        3 0.25  FALSE       0.0977     -3.32
#>  8     2     3 0.0955 standard        3 0.25  FALSE       0.0977     -3.39
#>  9     3     3 0.0976 standard        3 0.25  FALSE       0.0977     -3.36
#> 10     1     4 0.151  standard        4 0.5   TRUE        0.148      -2.72
#> # ℹ 78 more rows
…
conc <- qp_calc_conc(out)
conc
#> $fit
#> 
#> Call:
#> stats::lm(formula = .log2_conc ~ .log2_abs, data = fit_data)
#> 
#> Coefficients:
#> (Intercept)    .log2_abs  
#>       2.378        0.850  
#> 
#> 
#> $qp
#> # A tibble: 88 × 12
#>     .row  .col   .abs sample_type index .conc .is_outlier  .mean .log2_abs
#>    <int> <dbl>  <dbl> <fct>       <dbl> <dbl> <lgl>        <dbl>     <dbl>
#>  1     1     1 0.0707 standard        1 0     FALSE       0.0710     -3.82
#>  2     2     1 0.0786 standard        1 0     TRUE        0.0710     -3.67
#>  3     3     1 0.0714 standard        1 0     FALSE       0.0710     -3.81
#>  4     1     2 0.0795 standard        2 0.125 FALSE       0.0800     -3.65
#>  5     2     2 0.0799 standard        2 0.125 FALSE       0.0800     -3.65
#>  6     3     2 0.0805 standard        2 0.125 FALSE       0.0800     -3.63
#>  7     1     3 0.0999 standard        3 0.25  FALSE       0.0977     -3.32
#>  8     2     3 0.0955 standard        3 0.25  FALSE       0.0977     -3.39
#>  9     3     3 0.0976 standard        3 0.25  FALSE       0.0977     -3.36
#> 10     1     4 0.151  standard        4 0.5   TRUE        0.148      -2.72
#> # ℹ 78 more rows
#> # ℹ 3 more variables: .pred <dbl>, .pred_conc <dbl>, .pred_conc_mean <dbl>
…
